Two group comparisons
…
# convert to tidy format and extract two genes
twoGenes <- toLongerMeta(eset) %>% 
  filter(gene %in% c("1422248_at", "1450946_at")) %>%
  mutate(gene = ifelse(gene == "1422248_at", "Irs4", "Nrl")) 
twoGenes

# A tibble: 78 × 5
   gene  sample_id Expression dev_stage genotype
   <chr> <chr>          <dbl> <fct>     <fct>   
 1 Irs4  GSM92610        7.71 4_weeks   NrlKO   
 2 Irs4  GSM92611        7.77 4_weeks   NrlKO   
 3 Irs4  GSM92612        7.73 4_weeks   NrlKO   
 4 Irs4  GSM92613        7.57 4_weeks   NrlKO   
 5 Irs4  GSM92614        7.95 E16       NrlKO   
 6 Irs4  GSM92615        7.52 E16       NrlKO   
 7 Irs4  GSM92616        8.08 E16       NrlKO   
 8 Irs4  GSM92617        7.71 P10       NrlKO   
 9 Irs4  GSM92618        7.87 P10       NrlKO   
10 Irs4  GSM92619        7.75 P10       NrlKO   
# ℹ 68 more rows
…
