Exploratory data analysis & experimental design
…
Metadata

m

# A tibble: 44 × 8
   Number Sample            DPC Sex   Group  SeqRun MappedReads FeatureCounts
    <dbl> <chr>           <dbl> <fct> <fct>  <fct>        <dbl>         <dbl>
 1      1 Sample_ANAN001A  12.5 F     Mutant A         42452222      37655856
 2      2 Sample_ANAN001B  12.5 M     WT     A         54503162      47106938
 3      3 Sample_ANAN001C  12.5 M     WT     A         44978512      40448118
 4      4 Sample_ANAN001D  12.5 F     Mutant A         50099336      44993589
 5      5 Sample_ANAN001E  12.5 F     Mutant A         47163546      41840678
 6      6 Sample_ANAN001F  12.5 F     WT     A         43893480      39483622
 7      7 Sample_ANAN001G  12.5 F     Mutant A         53208684      47697298
 8      8 Sample_ANAN001H  12.5 F     WT     A         38925414      35056860
 9      9 Chd8.e14.S12     14.5 M     WT     B         23622816      19586363
10     10 Chd8.e14.S13     14.5 F     WT     B         23974703      21019829
# ℹ 34 more rows
…
The Tidy way

d_long

# A tibble: 534,952 × 10
   gene          Sample   Expression Number   DPC Sex   Group SeqRun MappedReads
   <chr>         <chr>         <dbl>  <dbl> <dbl> <fct> <fct> <fct>        <dbl>
 1 0610007P14Rik Sample_…       5.24      1  12.5 F     Muta… A         42452222
 2 0610009B22Rik Sample_…       4.25      1  12.5 F     Muta… A         42452222
 3 0610009O20Rik Sample_…       4.81      1  12.5 F     Muta… A         42452222
 4 0610010F05Rik Sample_…       4.83      1  12.5 F     Muta… A         42452222
 5 0610010K14Rik Sample_…       5.96      1  12.5 F     Muta… A         42452222
 6 0610011F06Rik Sample_…       4.62      1  12.5 F     Muta… A         42452222
 7 0610012G03Rik Sample_…       4.03      1  12.5 F     Muta… A         42452222
 8 0610030E20Rik Sample_…       3.22      1  12.5 F     Muta… A         42452222
 9 0610031J06Rik Sample_…       4.38      1  12.5 F     Muta… A         42452222
10 0610037L13Rik Sample_…       4.23      1  12.5 F     Muta… A         42452222
# ℹ 534,942 more rows
# ℹ 1 more variable: FeatureCounts <dbl>
…
